…
__Please note that I have chosen to include both the year and quarter variables as well as the year_quarter variable purposely for a later question.__ 


### 4.2) Inspect the data frame

It looks like some countries are missing data for a number of years and periods (e.g. Albania). Confirm that this is the case. What do you think is happening here?


```r
coal_country %>% group_by(year, quarter) %>% count()
```

```
## # A tibble: 71 x 3
## # Groups:   year, quarter [71]
##     year quarter     n
##    <dbl>   <dbl> <int>
##  1  2002       1    46
##  2  2002       2    51
##  3  2002       3    47
##  4  2002       4    46
##  5  2003       1    47
##  6  2003       2    49
##  7  2003       3    49
##  8  2003       4    42
##  9  2004       1    51
## 10  2004       2    49
## # ... with 61 more rows
```
…
